…
Now the data is arranged in a table with the Date information as first
column:

``` r
data.table <- tibble(Date = time(T2),
                     T2.wrf = t(T2.ts),
                     HR2.wrf = t(HR2.ts),
                     SMOIS.wrf = t(SMOIS.ts),
                     magViento.wrf = t(magViento.ts))
data.table
```

    ## # A tibble: 146 × 5
    ##    Date                T2.wrf[,1] HR2.wrf[,1] SMOIS.wrf[,1] magViento.wrf[,1]
    ##    <dttm>                   <dbl>       <dbl>         <dbl>             <dbl>
    ##  1 2023-01-01 12:00:00       24.5        58.2         0.139              1.96
    ##  2 2023-01-01 13:00:00       28.9        35.5         0.139              2.86
    ##  3 2023-01-01 14:00:00       30.8        29.1         0.139              2.81
    ##  4 2023-01-01 15:00:00       31.7        25.8         0.139              1.58
    ##  5 2023-01-01 16:00:00       31.3        30.2         0.139              8.18
    ##  6 2023-01-01 17:00:00       29.4        34.5         0.139              7.26
    ##  7 2023-01-01 18:00:00       26.5        46.7         0.139              9.41
    ##  8 2023-01-01 19:00:00       28.0        41.3         0.139              7.19
    ##  9 2023-01-01 20:00:00       25.3        58.9         0.142              4.29
    ## 10 2023-01-01 21:00:00       26.9        45.9         0.142              2.83
    ## # ℹ 136 more rows
…
