…
Now the data is arranged in a table with the Date information as first
column:

``` r
data.table <- tibble(Date = time(T2),
                     T2.wrf = t(T2.ts),
                     HR2.wrf = t(HR2.ts),
                     SMOIS.wrf = t(SMOIS.ts),
                     magViento.wrf = t(magViento.ts))
data.table
```

    ## # A tibble: 146 × 5
    ##    Date                T2.wrf[,1] HR2.wrf[,1] SMOIS.wrf[,1] magViento.wrf[,1]
    ##    <dttm>                   <dbl>       <dbl>         <dbl>             <dbl>
    ##  1 2023-01-01 00:00:00       31.2        28.1         0.131              1.95
    ##  2 2023-01-01 01:00:00       30.0        33.1         0.131              1.99
    ##  3 2023-01-01 02:00:00       27.9        35.0         0.131              3.07
    ##  4 2023-01-01 03:00:00       26.8        35.4         0.131              3.16
    ##  5 2023-01-01 04:00:00       25.7        37.9         0.131              3.22
    ##  6 2023-01-01 05:00:00       24.7        39.5         0.131              3.74
    ##  7 2023-01-01 06:00:00       23.1        42.1         0.131              3.31
    ##  8 2023-01-01 07:00:00       24.6        36.4         0.131              3.32
    ##  9 2023-01-01 08:00:00       24.8        36.3         0.131              2.62
    ## 10 2023-01-01 09:00:00       25.3        32.2         0.131              4.74
    ## # ℹ 136 more rows

## Predicting variable: observational data

The variable to predict, will be the relative humidity observed in
Sunchales City. Here is a sample of the data:

``` r
data.obs <- read.csv("./data/sunchales.csv", header = TRUE) %>% as_tibble()
data.obs
```

    ## # A tibble: 145 × 4
    ##    ESTACION FECHAUTC    HORA HUMREL
    ##       <int> <chr>      <int>  <int>
    ##  1    18250 2023-01-01     0     35
    ##  2    18250 2023-01-01     1     59
    ##  3    18250 2023-01-01     2     86
    ##  4    18250 2023-01-01     3     87
    ##  5    18250 2023-01-01     4     88
    ##  6    18250 2023-01-01     5     95
    ##  7    18250 2023-01-01     6     96
    ##  8    18250 2023-01-01     7     93
    ##  9    18250 2023-01-01     8     84
    ## 10    18250 2023-01-01     9     78
    ## # ℹ 135 more rows
…
